[gd_scene load_steps=3 format=3 uid="uid://bpv3tpan5k5a7"]

[ext_resource type="Theme" uid="uid://ofx8k5xdmnvo" path="res://UI/theme.tres" id="1_8wxdv"]
[ext_resource type="Script" path="res://UI/hover_button.gd" id="1_aj53l"]

[node name="Button" type="Button"]
offset_right = 8.0
offset_bottom = 8.0
theme = ExtResource("1_8wxdv")
theme_override_font_sizes/font_size = 0
text = "UPGRADE"
script = ExtResource("1_aj53l")

[connection signal="focus_entered" from="." to="." method="_on_focus_entered"]
[connection signal="focus_exited" from="." to="." method="_on_focus_exited"]
[connection signal="mouse_entered" from="." to="." method="_on_mouse_entered"]
[connection signal="mouse_exited" from="." to="." method="_on_mouse_exited"]
